﻿[
    {
        "Id": 0,
        "Operand": "d",
        "NameRu": "расстояние от лампы до линзы",
        "ExperimentId": [
            17
        ]
    },
    {
        "Id": 1,
        "Operand": "f",
        "NameRu": "расстояние от линзы до лампы изображения",
        "ExperimentId": [
            17
        ]
    },
    {
        "Id": 2,
        "Operand": "D",
        "NameRu": "оптическая сила линзы",
        "ExperimentId": [
            17
        ]
    },
    {
        "Id": 5,
        "Operand": "d",
        "NameRu": "период решетки",
        "ExperimentId": [
            33
        ]
    },
    {
        "Id": 6,
        "Operand": "k",
        "NameRu": "порядок спектра",
        "ExperimentId": [
            33
        ]
    },
    {
        "Id": 7,
        "Operand": "a",
        "NameRu": "расстояние от экрана до дифракционной решетки",
        "ExperimentId": [
            33
        ]
    },
    {
        "Id": 8,
        "Operand": "b",
        "NameRu": "расстояние до выбранной линии спектра",
        "ExperimentId": [
            33
        ]
    },
    {
        "Id": 33,
        "Operand": "α",
        "NameRu": "угол падения",
        "ExperimentId": [
            34
        ]
    },
    {
        "Id": 34,
        "Operand": "β",
        "NameRu": "угол преломления",
        "ExperimentId": [
            34
        ]
    },
    {
        "Id": 35,
        "Operand": "U",
        "NameRu": "напряжение",
        "ExperimentId": [
            13,
            14
        ]
    },
    {
        "Id": 36,
        "Operand": "I",
        "NameRu": "сила тока",
        "ExperimentId": [
            13,
            14,
            28,
            29
        ]
    },
    {
        "Id": 37,
        "Operand": "R<size=9>1</size>",
        "NameRu": "сопротивление первого участка",
        "ExperimentId": [
            13,
            29
        ]
    },
    {
        "Id": 38,
        "Operand": "R<size=9>2</size>",
        "NameRu": "сопротивление второго участка",
        "ExperimentId": [
            13,
            29
        ]
    },
    {
        "Id": 39,
        "Operand": "t",
        "NameRu": "время",
        "ExperimentId": [
            14,
            18,
            21
        ]
    },
    {
        "Id": 40,
        "Operand": "R",
        "NameRu": "сопротивление участка цепи",
        "ExperimentId": [
            28
        ]
    },
    {
        "Id": 41,
        "Operand": "U<size=9>1</size>",
        "NameRu": "напряжение на первом резисторе",
        "ExperimentId": [
            29,
            30
        ]
    },
    {
        "Id": 42,
        "Operand": "U<size=9>2</size>",
        "NameRu": "напряжение на втором резисторе",
        "ExperimentId": [
            29,
            30
        ]
    },
    {
        "Id": 43,
        "Operand": "U<size=9>общ</size>",
        "NameRu": "общие напряжение",
        "ExperimentId": [
            29
        ]
    },
    {
        "Id": 44,
        "Operand": "I<size=9>1</size>",
        "NameRu": "сила тока на первом амперметре",
        "ExperimentId": [
            29,
            30
        ]
    },
    {
        "Id": 45,
        "Operand": "I<size=9>2</size>",
        "NameRu": "сила тока на втором амперметре",
        "ExperimentId": [
            29,
            30
        ]
    },
    {
        "Id": 46,
        "Operand": "I<size=9>общ</size>",
        "NameRu": "общая сила тока",
        "ExperimentId": [
            29
        ]
    },
    {
        "Id": 47,
        "Operand": "V<size=9>1</size>",
        "NameRu": "первый объем",
        "ExperimentId": [
            23,
            4
        ]
    },
    {
        "Id": 48,
        "Operand": "V<size=9>2</size>",
        "NameRu": "второй объем",
        "ExperimentId": [
            23,
            4
        ]
    },
    {
        "Id": 49,
        "Operand": "V",
        "NameRu": "объем тела",
        "ExperimentId": [
            23,
            4,
            5,
            27
        ]
    },
    {
        "Id": 50,
        "Operand": "m",
        "NameRu": "масса",
        "ExperimentId": [
            23,
            3,
            5,
            7,
            2,
            27,
            9
        ]
    },
    {
        "Id": 51,
        "Operand": "p",
        "NameRu": "плотность",
        "ExperimentId": [
            24
        ]
    },
    {
        "Id": 52,
        "Operand": "g",
        "NameRu": "гравитация",
        "ExperimentId": [
            24,
            19,
            3,
            4,
            5,
            7,
            2,
            27
        ]
    },
    {
        "Id": 53,
        "Operand": "h",
        "NameRu": "высота",
        "ExperimentId": [
            24,
            19,
            8,
            2
        ]
    },
    {
        "Id": 54,
        "Operand": "l<size=9>1</size>",
        "NameRu": "первая высота",
        "ExperimentId": [
            24
        ]
    },
    {
        "Id": 55,
        "Operand": "l<size=9>2</size>",
        "NameRu": "вторая высота",
        "ExperimentId": [
            24
        ]
    },
    {
        "Id": 56,
        "Operand": "c<size=9>1</size>",
        "NameRu": "первая удельная теплота",
        "ExperimentId": [
            25
        ]
    },
    {
        "Id": 57,
        "Operand": "c<size=9>2</size>",
        "NameRu": "вторая удельная теплота",
        "ExperimentId": [
            25
        ]
    },
    {
        "Id": 58,
        "Operand": "m<size=9>1</size>",
        "NameRu": "первая масса",
        "ExperimentId": [
            25,
            10
        ]
    },
    {
        "Id": 59,
        "Operand": "t<size=9>1</size>",
        "NameRu": "первая температура",
        "ExperimentId": [
            25,
            10,
            9
        ]
    },
    {
        "Id": 60,
        "Operand": "t<size=9>2</size>",
        "NameRu": "вторая температура",
        "ExperimentId": [
            25,
            10,
            9
        ]
    },
    {
        "Id": 61,
        "Operand": "s",
        "NameRu": "путь",
        "ExperimentId": [
            18,
            8,
            2
        ]
    },
    {
        "Id": 62,
        "Operand": "l",
        "NameRu": "длина",
        "ExperimentId": [
            19,
            3,
            7,
            20,
            21
        ]
    },
    {
        "Id": 63,
        "Operand": "p<size=9>ж</size>",
        "NameRu": "плотность жидкости",
        "ExperimentId": [
            4,
            5
        ]
    },
    {
        "Id": 64,
        "Operand": "P<size=9>1</size>",
        "NameRu": "вес первый",
        "ExperimentId": [
            4
        ]
    },
    {
        "Id": 65,
        "Operand": "P<size=9>2</size>",
        "NameRu": "вес второй",
        "ExperimentId": [
            4
        ]
    },
    {
        "Id": 66,
        "Operand": "F",
        "NameRu": "сила тяжести",
        "ExperimentId": [
            7,
            8
        ]
    },
    {
        "Id": 67,
        "Operand": "P",
        "NameRu": "вес",
        "ExperimentId": [
            8
        ]
    },
    {
        "Id": 68,
        "Operand": "А<size=9>п</size>",
        "NameRu": "полезная работа",
        "ExperimentId": [
            8
        ]
    },
    {
        "Id": 69,
        "Operand": "А<size=9>з</size>",
        "NameRu": "затраченная работа",
        "ExperimentId": [
            8
        ]
    },
    {
        "Id": 70,
        "Operand": "%",
        "NameRu": "процент",
        "ExperimentId": [
            8
        ]
    },
    {
        "Id": 71,
        "Operand": "F<size=9>упр</size>",
        "NameRu": "сила упругости",
        "ExperimentId": [
            2
        ]
    },
    {
        "Id": 72,
        "Operand": "x",
        "NameRu": "удлинение",
        "ExperimentId": [
            2
        ]
    },
    {
        "Id": 73,
        "Operand": "π",
        "NameRu": "пи",
        "ExperimentId": [
            20,
            27
        ]
    },
    {
        "Id": 74,
        "Operand": "T",
        "NameRu": "период колебаний",
        "ExperimentId": [
            20
        ]
    },
    {
        "Id": 75,
        "Operand": "n",
        "NameRu": "количество",
        "ExperimentId": [
            27
        ]
    },
    {
        "Id": 76,
        "Operand": "d",
        "NameRu": "диаметер",
        "ExperimentId": [
            27
        ]
    },
    {
        "Id": 77,
        "Operand": "m<size=9>2</size>",
        "NameRu": "вторая масса",
        "ExperimentId": [
            25,
            10
        ]
    },
    {
        "Id": 78,
        "Operand": "t",
        "NameRu": "температура",
        "ExperimentId": [
            25
        ]
    },
    {
        "Id": 79,
        "Operand": "c",
        "NameRu": "удельная теплота",
        "ExperimentId": [
            10,
            9
        ]
    },
    {
        "Id": 80,
        "Operand": "t<size=9>3</size>",
        "NameRu": "третья температура",
        "ExperimentId": [
            9
        ]
    }
]