%YAML 1.1
%TAG !u! tag:unity3d.com,2011:
--- !u!29 &1
OcclusionCullingSettings:
  m_ObjectHideFlags: 0
  serializedVersion: 2
  m_OcclusionBakeSettings:
    smallestOccluder: 5
    smallestHole: 0.25
    backfaceThreshold: 100
  m_SceneGUID: 00000000000000000000000000000000
  m_OcclusionCullingData: {fileID: 0}
--- !u!104 &2
RenderSettings:
  m_ObjectHideFlags: 0
  serializedVersion: 8
  m_Fog: 0
  m_FogColor: {r: 0.5, g: 0.5, b: 0.5, a: 1}
  m_FogMode: 3
  m_FogDensity: 0.01
  m_LinearFogStart: 0
  m_LinearFogEnd: 300
  m_AmbientSkyColor: {r: 0, g: 0, b: 0, a: 1}
  m_AmbientEquatorColor: {r: 0.114, g: 0.125, b: 0.133, a: 1}
  m_AmbientGroundColor: {r: 0.047, g: 0.043, b: 0.035, a: 1}
  m_AmbientIntensity: 1
  m_AmbientMode: 3
  m_SubtractiveShadowColor: {r: 0.42, g: 0.478, b: 0.627, a: 1}
  m_SkyboxMaterial: {fileID: 0}
  m_HaloStrength: 0.5
  m_FlareStrength: 1
  m_FlareFadeSpeed: 3
  m_HaloTexture: {fileID: 0}
  m_SpotCookie: {fileID: 10001, guid: 0000000000000000e000000000000000, type: 0}
  m_DefaultReflectionMode: 1
  m_DefaultReflectionResolution: 128
  m_ReflectionBounces: 1
  m_ReflectionIntensity: 1
  m_CustomReflection: {fileID: 0}
  m_Sun: {fileID: 0}
  m_IndirectSpecularColor: {r: 0, g: 0, b: 0, a: 1}
--- !u!157 &3
LightmapSettings:
  m_ObjectHideFlags: 0
  serializedVersion: 9
  m_GIWorkflowMode: 1
  m_GISettings:
    serializedVersion: 2
    m_BounceScale: 1
    m_IndirectOutputScale: 1
    m_AlbedoBoost: 1
    m_TemporalCoherenceThreshold: 1
    m_EnvironmentLightingMode: 1
    m_EnableBakedLightmaps: 0
    m_EnableRealtimeLightmaps: 0
  m_LightmapEditorSettings:
    serializedVersion: 8
    m_Resolution: 2
    m_BakeResolution: 40
    m_TextureWidth: 1024
    m_TextureHeight: 1024
    m_AO: 0
    m_AOMaxDistance: 1
    m_CompAOExponent: 1
    m_CompAOExponentDirect: 0
    m_Padding: 2
    m_LightmapParameters: {fileID: 0}
    m_LightmapsBakeMode: 0
    m_TextureCompression: 0
    m_FinalGather: 0
    m_FinalGatherFiltering: 1
    m_FinalGatherRayCount: 256
    m_ReflectionCompression: 2
    m_MixedBakeMode: 1
    m_BakeBackend: 0
    m_PVRSampling: 1
    m_PVRDirectSampleCount: 32
    m_PVRSampleCount: 500
    m_PVRBounces: 2
    m_PVRFiltering: 0
    m_PVRFilteringMode: 1
    m_PVRCulling: 1
    m_PVRFilteringGaussRadiusDirect: 1
    m_PVRFilteringGaussRadiusIndirect: 5
    m_PVRFilteringGaussRadiusAO: 2
    m_PVRFilteringAtrousColorSigma: 1
    m_PVRFilteringAtrousNormalSigma: 1
    m_PVRFilteringAtrousPositionSigma: 1
  m_LightingDataAsset: {fileID: 112000197, guid: 23e60f04213b0854fac3bbfb04688c32,
    type: 2}
  m_ShadowMaskMode: 2
--- !u!196 &4
NavMeshSettings:
  serializedVersion: 2
  m_ObjectHideFlags: 0
  m_BuildSettings:
    serializedVersion: 2
    agentTypeID: 0
    agentRadius: 0.5
    agentHeight: 2
    agentSlope: 45
    agentClimb: 0.4
    ledgeDropHeight: 0
    maxJumpAcrossDistance: 0
    minRegionArea: 2
    manualCellSize: 0
    cellSize: 0.16666667
    manualTileSize: 0
    tileSize: 256
    accuratePlacement: 0
  m_NavMeshData: {fileID: 0}
--- !u!1 &303751941
GameObject:
  m_ObjectHideFlags: 0
  m_PrefabParentObject: {fileID: 0}
  m_PrefabInternal: {fileID: 0}
  serializedVersion: 5
  m_Component:
  - component: {fileID: 303751942}
  m_Layer: 0
  m_Name: '------------------'
  m_TagString: Untagged
  m_Icon: {fileID: 0}
  m_NavMeshLayer: 0
  m_StaticEditorFlags: 0
  m_IsActive: 1
--- !u!4 &303751942
Transform:
  m_ObjectHideFlags: 0
  m_PrefabParentObject: {fileID: 0}
  m_PrefabInternal: {fileID: 0}
  m_GameObject: {fileID: 303751941}
  m_LocalRotation: {x: 0, y: 0, z: 0, w: 1}
  m_LocalPosition: {x: 0, y: 0, z: 0}
  m_LocalScale: {x: 1, y: 1, z: 1}
  m_Children: []
  m_Father: {fileID: 0}
  m_RootOrder: 6
  m_LocalEulerAnglesHint: {x: 0, y: 0, z: 0}
--- !u!1 &848579212
GameObject:
  m_ObjectHideFlags: 0
  m_PrefabParentObject: {fileID: 0}
  m_PrefabInternal: {fileID: 0}
  serializedVersion: 5
  m_Component:
  - component: {fileID: 848579213}
  m_Layer: 0
  m_Name: '------------------'
  m_TagString: Untagged
  m_Icon: {fileID: 0}
  m_NavMeshLayer: 0
  m_StaticEditorFlags: 0
  m_IsActive: 1
--- !u!4 &848579213
Transform:
  m_ObjectHideFlags: 0
  m_PrefabParentObject: {fileID: 0}
  m_PrefabInternal: {fileID: 0}
  m_GameObject: {fileID: 848579212}
  m_LocalRotation: {x: 0, y: 0, z: 0, w: 1}
  m_LocalPosition: {x: 0, y: 0, z: 0}
  m_LocalScale: {x: 1, y: 1, z: 1}
  m_Children: []
  m_Father: {fileID: 0}
  m_RootOrder: 1
  m_LocalEulerAnglesHint: {x: 0, y: 0, z: 0}
--- !u!4 &1010170319 stripped
Transform:
  m_PrefabParentObject: {fileID: 4164880961921552, guid: 7d4cbaa350937cd4785a687656ba8d62,
    type: 2}
  m_PrefabInternal: {fileID: 1387302619}
--- !u!1001 &1387302619
Prefab:
  m_ObjectHideFlags: 0
  serializedVersion: 2
  m_Modification:
    m_TransformParent: {fileID: 0}
    m_Modifications:
    - target: {fileID: 4793355158934826, guid: 7d4cbaa350937cd4785a687656ba8d62, type: 2}
      propertyPath: m_LocalPosition.x
      value: 0
      objectReference: {fileID: 0}
    - target: {fileID: 4793355158934826, guid: 7d4cbaa350937cd4785a687656ba8d62, type: 2}
      propertyPath: m_LocalPosition.y
      value: 0
      objectReference: {fileID: 0}
    - target: {fileID: 4793355158934826, guid: 7d4cbaa350937cd4785a687656ba8d62, type: 2}
      propertyPath: m_LocalPosition.z
      value: 0
      objectReference: {fileID: 0}
    - target: {fileID: 4793355158934826, guid: 7d4cbaa350937cd4785a687656ba8d62, type: 2}
      propertyPath: m_LocalRotation.x
      value: 0
      objectReference: {fileID: 0}
    - target: {fileID: 4793355158934826, guid: 7d4cbaa350937cd4785a687656ba8d62, type: 2}
      propertyPath: m_LocalRotation.y
      value: 0
      objectReference: {fileID: 0}
    - target: {fileID: 4793355158934826, guid: 7d4cbaa350937cd4785a687656ba8d62, type: 2}
      propertyPath: m_LocalRotation.z
      value: 0
      objectReference: {fileID: 0}
    - target: {fileID: 4793355158934826, guid: 7d4cbaa350937cd4785a687656ba8d62, type: 2}
      propertyPath: m_LocalRotation.w
      value: 1
      objectReference: {fileID: 0}
    - target: {fileID: 4793355158934826, guid: 7d4cbaa350937cd4785a687656ba8d62, type: 2}
      propertyPath: m_RootOrder
      value: 8
      objectReference: {fileID: 0}
    m_RemovedComponents: []
  m_ParentPrefab: {fileID: 100100000, guid: 7d4cbaa350937cd4785a687656ba8d62, type: 2}
  m_IsPrefabParent: 0
--- !u!1001 &1411975761
Prefab:
  m_ObjectHideFlags: 0
  serializedVersion: 2
  m_Modification:
    m_TransformParent: {fileID: 0}
    m_Modifications:
    - target: {fileID: 4301198394625362, guid: 24a681c9489f2394885d4316851f4f3f, type: 2}
      propertyPath: m_LocalPosition.x
      value: 0
      objectReference: {fileID: 0}
    - target: {fileID: 4301198394625362, guid: 24a681c9489f2394885d4316851f4f3f, type: 2}
      propertyPath: m_LocalPosition.y
      value: 0
      objectReference: {fileID: 0}
    - target: {fileID: 4301198394625362, guid: 24a681c9489f2394885d4316851f4f3f, type: 2}
      propertyPath: m_LocalPosition.z
      value: 0
      objectReference: {fileID: 0}
    - target: {fileID: 4301198394625362, guid: 24a681c9489f2394885d4316851f4f3f, type: 2}
      propertyPath: m_LocalRotation.x
      value: 0
      objectReference: {fileID: 0}
    - target: {fileID: 4301198394625362, guid: 24a681c9489f2394885d4316851f4f3f, type: 2}
      propertyPath: m_LocalRotation.y
      value: 0
      objectReference: {fileID: 0}
    - target: {fileID: 4301198394625362, guid: 24a681c9489f2394885d4316851f4f3f, type: 2}
      propertyPath: m_LocalRotation.z
      value: 0
      objectReference: {fileID: 0}
    - target: {fileID: 4301198394625362, guid: 24a681c9489f2394885d4316851f4f3f, type: 2}
      propertyPath: m_LocalRotation.w
      value: 1
      objectReference: {fileID: 0}
    - target: {fileID: 4301198394625362, guid: 24a681c9489f2394885d4316851f4f3f, type: 2}
      propertyPath: m_RootOrder
      value: 6
      objectReference: {fileID: 0}
    - target: {fileID: 114571525294664690, guid: 24a681c9489f2394885d4316851f4f3f,
        type: 2}
      propertyPath: _posToView
      value: 
      objectReference: {fileID: 1010170319}
    m_RemovedComponents: []
  m_ParentPrefab: {fileID: 100100000, guid: 24a681c9489f2394885d4316851f4f3f, type: 2}
  m_IsPrefabParent: 0
--- !u!20 &1411975762 stripped
Camera:
  m_PrefabParentObject: {fileID: 20793018987499022, guid: 24a681c9489f2394885d4316851f4f3f,
    type: 2}
  m_PrefabInternal: {fileID: 1411975761}
--- !u!1001 &1561886220
Prefab:
  m_ObjectHideFlags: 0
  serializedVersion: 2
  m_Modification:
    m_TransformParent: {fileID: 0}
    m_Modifications:
    - target: {fileID: 4073011839328518, guid: 024a00b45f38c154fa5097bc4fd326e1, type: 2}
      propertyPath: m_LocalPosition.x
      value: 0
      objectReference: {fileID: 0}
    - target: {fileID: 4073011839328518, guid: 024a00b45f38c154fa5097bc4fd326e1, type: 2}
      propertyPath: m_LocalPosition.y
      value: 0
      objectReference: {fileID: 0}
    - target: {fileID: 4073011839328518, guid: 024a00b45f38c154fa5097bc4fd326e1, type: 2}
      propertyPath: m_LocalPosition.z
      value: 0
      objectReference: {fileID: 0}
    - target: {fileID: 4073011839328518, guid: 024a00b45f38c154fa5097bc4fd326e1, type: 2}
      propertyPath: m_LocalRotation.x
      value: 0
      objectReference: {fileID: 0}
    - target: {fileID: 4073011839328518, guid: 024a00b45f38c154fa5097bc4fd326e1, type: 2}
      propertyPath: m_LocalRotation.y
      value: 0
      objectReference: {fileID: 0}
    - target: {fileID: 4073011839328518, guid: 024a00b45f38c154fa5097bc4fd326e1, type: 2}
      propertyPath: m_LocalRotation.z
      value: 0
      objectReference: {fileID: 0}
    - target: {fileID: 4073011839328518, guid: 024a00b45f38c154fa5097bc4fd326e1, type: 2}
      propertyPath: m_LocalRotation.w
      value: 1
      objectReference: {fileID: 0}
    - target: {fileID: 4073011839328518, guid: 024a00b45f38c154fa5097bc4fd326e1, type: 2}
      propertyPath: m_RootOrder
      value: 0
      objectReference: {fileID: 0}
    m_RemovedComponents: []
  m_ParentPrefab: {fileID: 100100000, guid: 024a00b45f38c154fa5097bc4fd326e1, type: 2}
  m_IsPrefabParent: 0
--- !u!1001 &1655937810
Prefab:
  m_ObjectHideFlags: 0
  serializedVersion: 2
  m_Modification:
    m_TransformParent: {fileID: 0}
    m_Modifications:
    - target: {fileID: 4934922440684622, guid: 57196a422561c0a409d8f38f2e9e8edb, type: 2}
      propertyPath: m_LocalPosition.x
      value: 0
      objectReference: {fileID: 0}
    - target: {fileID: 4934922440684622, guid: 57196a422561c0a409d8f38f2e9e8edb, type: 2}
      propertyPath: m_LocalPosition.y
      value: 0
      objectReference: {fileID: 0}
    - target: {fileID: 4934922440684622, guid: 57196a422561c0a409d8f38f2e9e8edb, type: 2}
      propertyPath: m_LocalPosition.z
      value: 0
      objectReference: {fileID: 0}
    - target: {fileID: 4934922440684622, guid: 57196a422561c0a409d8f38f2e9e8edb, type: 2}
      propertyPath: m_LocalRotation.x
      value: 0
      objectReference: {fileID: 0}
    - target: {fileID: 4934922440684622, guid: 57196a422561c0a409d8f38f2e9e8edb, type: 2}
      propertyPath: m_LocalRotation.y
      value: 0
      objectReference: {fileID: 0}
    - target: {fileID: 4934922440684622, guid: 57196a422561c0a409d8f38f2e9e8edb, type: 2}
      propertyPath: m_LocalRotation.z
      value: 0
      objectReference: {fileID: 0}
    - target: {fileID: 4934922440684622, guid: 57196a422561c0a409d8f38f2e9e8edb, type: 2}
      propertyPath: m_LocalRotation.w
      value: 1
      objectReference: {fileID: 0}
    - target: {fileID: 4934922440684622, guid: 57196a422561c0a409d8f38f2e9e8edb, type: 2}
      propertyPath: m_RootOrder
      value: 2
      objectReference: {fileID: 0}
    - target: {fileID: 1062838340447444, guid: 57196a422561c0a409d8f38f2e9e8edb, type: 2}
      propertyPath: m_Name
      value: LabSceneDIContainer
      objectReference: {fileID: 0}
    m_RemovedComponents: []
  m_ParentPrefab: {fileID: 100100000, guid: 57196a422561c0a409d8f38f2e9e8edb, type: 2}
  m_IsPrefabParent: 0
--- !u!1001 &2015835782
Prefab:
  m_ObjectHideFlags: 0
  serializedVersion: 2
  m_Modification:
    m_TransformParent: {fileID: 0}
    m_Modifications:
    - target: {fileID: 4344643792613918, guid: 78cba41fa597c8b4faff072c25feb83c, type: 2}
      propertyPath: m_LocalPosition.x
      value: 0
      objectReference: {fileID: 0}
    - target: {fileID: 4344643792613918, guid: 78cba41fa597c8b4faff072c25feb83c, type: 2}
      propertyPath: m_LocalPosition.y
      value: 0
      objectReference: {fileID: 0}
    - target: {fileID: 4344643792613918, guid: 78cba41fa597c8b4faff072c25feb83c, type: 2}
      propertyPath: m_LocalPosition.z
      value: 0
      objectReference: {fileID: 0}
    - target: {fileID: 4344643792613918, guid: 78cba41fa597c8b4faff072c25feb83c, type: 2}
      propertyPath: m_LocalRotation.x
      value: 0
      objectReference: {fileID: 0}
    - target: {fileID: 4344643792613918, guid: 78cba41fa597c8b4faff072c25feb83c, type: 2}
      propertyPath: m_LocalRotation.y
      value: 0
      objectReference: {fileID: 0}
    - target: {fileID: 4344643792613918, guid: 78cba41fa597c8b4faff072c25feb83c, type: 2}
      propertyPath: m_LocalRotation.z
      value: 0
      objectReference: {fileID: 0}
    - target: {fileID: 4344643792613918, guid: 78cba41fa597c8b4faff072c25feb83c, type: 2}
      propertyPath: m_LocalRotation.w
      value: 1
      objectReference: {fileID: 0}
    - target: {fileID: 4344643792613918, guid: 78cba41fa597c8b4faff072c25feb83c, type: 2}
      propertyPath: m_RootOrder
      value: 2
      objectReference: {fileID: 0}
    - target: {fileID: 223006861768013068, guid: 78cba41fa597c8b4faff072c25feb83c,
        type: 2}
      propertyPath: m_Camera
      value: 
      objectReference: {fileID: 1411975762}
    - target: {fileID: 224034749137368322, guid: 78cba41fa597c8b4faff072c25feb83c,
        type: 2}
      propertyPath: m_AnchorMax.x
      value: 1
      objectReference: {fileID: 0}
    - target: {fileID: 224034749137368322, guid: 78cba41fa597c8b4faff072c25feb83c,
        type: 2}
      propertyPath: m_AnchorMax.y
      value: 1
      objectReference: {fileID: 0}
    - target: {fileID: 224641447181354068, guid: 78cba41fa597c8b4faff072c25feb83c,
        type: 2}
      propertyPath: m_AnchorMax.x
      value: 1
      objectReference: {fileID: 0}
    - target: {fileID: 224641447181354068, guid: 78cba41fa597c8b4faff072c25feb83c,
        type: 2}
      propertyPath: m_AnchorMax.y
      value: 1
      objectReference: {fileID: 0}
    - target: {fileID: 224389993292155242, guid: 78cba41fa597c8b4faff072c25feb83c,
        type: 2}
      propertyPath: m_AnchorMax.x
      value: 1
      objectReference: {fileID: 0}
    - target: {fileID: 224389993292155242, guid: 78cba41fa597c8b4faff072c25feb83c,
        type: 2}
      propertyPath: m_AnchorMax.y
      value: 1
      objectReference: {fileID: 0}
    - target: {fileID: 224436180251376022, guid: 78cba41fa597c8b4faff072c25feb83c,
        type: 2}
      propertyPath: m_SizeDelta.y
      value: 29
      objectReference: {fileID: 0}
    - target: {fileID: 224436180251376022, guid: 78cba41fa597c8b4faff072c25feb83c,
        type: 2}
      propertyPath: m_AnchoredPosition.y
      value: 0.000015258789
      objectReference: {fileID: 0}
    - target: {fileID: 224176268606518600, guid: 78cba41fa597c8b4faff072c25feb83c,
        type: 2}
      propertyPath: m_AnchorMax.x
      value: 1
      objectReference: {fileID: 0}
    - target: {fileID: 224176268606518600, guid: 78cba41fa597c8b4faff072c25feb83c,
        type: 2}
      propertyPath: m_AnchorMax.y
      value: 1
      objectReference: {fileID: 0}
    - target: {fileID: 224176268606518600, guid: 78cba41fa597c8b4faff072c25feb83c,
        type: 2}
      propertyPath: m_SizeDelta.x
      value: -10
      objectReference: {fileID: 0}
    - target: {fileID: 224742729963006228, guid: 78cba41fa597c8b4faff072c25feb83c,
        type: 2}
      propertyPath: m_AnchorMin.y
      value: 1
      objectReference: {fileID: 0}
    - target: {fileID: 224742729963006228, guid: 78cba41fa597c8b4faff072c25feb83c,
        type: 2}
      propertyPath: m_AnchorMax.y
      value: 1
      objectReference: {fileID: 0}
    - target: {fileID: 224742729963006228, guid: 78cba41fa597c8b4faff072c25feb83c,
        type: 2}
      propertyPath: m_AnchoredPosition.y
      value: -30
      objectReference: {fileID: 0}
    - target: {fileID: 224742729963006228, guid: 78cba41fa597c8b4faff072c25feb83c,
        type: 2}
      propertyPath: m_SizeDelta.x
      value: 30
      objectReference: {fileID: 0}
    - target: {fileID: 224742729963006228, guid: 78cba41fa597c8b4faff072c25feb83c,
        type: 2}
      propertyPath: m_SizeDelta.y
      value: 30
      objectReference: {fileID: 0}
    - target: {fileID: 224710655668926210, guid: 78cba41fa597c8b4faff072c25feb83c,
        type: 2}
      propertyPath: m_AnchorMin.y
      value: 1
      objectReference: {fileID: 0}
    - target: {fileID: 224710655668926210, guid: 78cba41fa597c8b4faff072c25feb83c,
        type: 2}
      propertyPath: m_AnchorMax.y
      value: 1
      objectReference: {fileID: 0}
    - target: {fileID: 224710655668926210, guid: 78cba41fa597c8b4faff072c25feb83c,
        type: 2}
      propertyPath: m_AnchoredPosition.x
      value: 55
      objectReference: {fileID: 0}
    - target: {fileID: 224710655668926210, guid: 78cba41fa597c8b4faff072c25feb83c,
        type: 2}
      propertyPath: m_AnchoredPosition.y
      value: -30
      objectReference: {fileID: 0}
    - target: {fileID: 224710655668926210, guid: 78cba41fa597c8b4faff072c25feb83c,
        type: 2}
      propertyPath: m_SizeDelta.x
      value: 30
      objectReference: {fileID: 0}
    - target: {fileID: 224710655668926210, guid: 78cba41fa597c8b4faff072c25feb83c,
        type: 2}
      propertyPath: m_SizeDelta.y
      value: 30
      objectReference: {fileID: 0}
    - target: {fileID: 224300022423275610, guid: 78cba41fa597c8b4faff072c25feb83c,
        type: 2}
      propertyPath: m_SizeDelta.x
      value: 85
      objectReference: {fileID: 0}
    - target: {fileID: 224300022423275610, guid: 78cba41fa597c8b4faff072c25feb83c,
        type: 2}
      propertyPath: m_SizeDelta.y
      value: 30
      objectReference: {fileID: 0}
    - target: {fileID: 224824673451480254, guid: 78cba41fa597c8b4faff072c25feb83c,
        type: 2}
      propertyPath: m_SizeDelta.x
      value: -1280
      objectReference: {fileID: 0}
    - target: {fileID: 224824673451480254, guid: 78cba41fa597c8b4faff072c25feb83c,
        type: 2}
      propertyPath: m_SizeDelta.y
      value: -80
      objectReference: {fileID: 0}
    - target: {fileID: 224823325533066706, guid: 78cba41fa597c8b4faff072c25feb83c,
        type: 2}
      propertyPath: m_AnchorMax.x
      value: 1
      objectReference: {fileID: 0}
    - target: {fileID: 224823325533066706, guid: 78cba41fa597c8b4faff072c25feb83c,
        type: 2}
      propertyPath: m_AnchorMax.y
      value: 1
      objectReference: {fileID: 0}
    - target: {fileID: 224824614981320860, guid: 78cba41fa597c8b4faff072c25feb83c,
        type: 2}
      propertyPath: m_AnchorMax.x
      value: 1
      objectReference: {fileID: 0}
    - target: {fileID: 224219148741935124, guid: 78cba41fa597c8b4faff072c25feb83c,
        type: 2}
      propertyPath: m_AnchorMax.y
      value: 1
      objectReference: {fileID: 0}
    m_RemovedComponents: []
  m_ParentPrefab: {fileID: 100100000, guid: 78cba41fa597c8b4faff072c25feb83c, type: 2}
  m_IsPrefabParent: 0
