%YAML 1.1
%TAG !u! tag:unity3d.com,2011:
--- !u!134 &13400000
PhysicMaterial:
  m_ObjectHideFlags: 0
  m_PrefabParentObject: {fileID: 0}
  m_PrefabInternal: {fileID: 0}
  m_Name: Metal
  dynamicFriction: 0.3
  staticFriction: 0.3
  bounciness: 0.5
  frictionCombine: 3
  bounceCombine: 3
--- !u!1002 &13400001
EditorExtensionImpl:
  serializedVersion: 6
